{
  "dev": {
    "name": "Dev",
    "label": "section::dev"
  },
  "ci": {
    "name": "CI",
    "label": "section::ci"
  },
  "cd": {
    "name": "CD",
    "label": "section::cd"
  },
  "sec": {
    "name": "Sec",
    "label": "section::sec"
  },
  "data-science": {
    "name": "Data Science",
    "label": "section::data-science"
  },
  "analytics": {
    "name": "Analytics",
    "label": "section::analytics"
  },
  "growth": {
    "name": "Growth",
    "label": "section::growth"
  },
  "fulfillment": {
    "name": "Fulfillment",
    "label": "section::fulfillment"
  },
  "enablement": {
    "name": "Enablement",
    "label": "section::enablement"
  },
  "platforms": {
    "name": "SaaS Platforms",
    "label": "section::platforms"
  },
  "seg": {
    "name": "Single-Engineer Groups",
    "label": "section::seg"
  }
}
